%YAML 1.1
%TAG !u! tag:unity3d.com,2011:
--- !u!1045 &1
EditorBuildSettings:
  m_ObjectHideFlags: 0
  serializedVersion: 2
  m_Scenes:
  - enabled: 1
    path: Assets/Scenes/World.unity
    guid: 2cda990e2423bbf4892e6590ba056729
  - enabled: 1
    path: Assets/Scenes/MiniGames1.unity
    guid: 604efc3e6fd1f574183fcc013296d112
  - enabled: 1
    path: Assets/Scenes/Mini Game Two.unity
    guid: 651bb502b13cb21418f8eddad7342f3a
  - enabled: 1
    path: Assets/Scenes/MiniGame2-Result.unity
    guid: 3fb3d0f43032422478ea5ba8ad02c3d2
  m_configObjects: {}
