Library\Bee\artifacts\movedfrom\Unity.2D.Animation.Editor.ref.dll_11618115258185575947.movedfrom
Library\Bee\artifacts\movedfrom\Unity.2D.Animation.Runtime.ref.dll_7442030340276972016.movedfrom
Library\Bee\artifacts\movedfrom\Unity.2D.Animation.Triangle.Runtime.ref.dll_2466708177045823920.movedfrom
Library\Bee\artifacts\movedfrom\Unity.2D.Common.Editor.ref.dll_13644118841584069410.movedfrom
Library\Bee\artifacts\movedfrom\Unity.2D.Common.Runtime.ref.dll_8609069629425828841.movedfrom
Library\Bee\artifacts\movedfrom\Unity.2D.IK.Editor.ref.dll_17727106842912892987.movedfrom
Library\Bee\artifacts\movedfrom\Unity.2D.IK.Runtime.ref.dll_1653431992716178624.movedfrom
Library\Bee\artifacts\movedfrom\Unity.2D.Path.Editor.ref.dll_6357241933857299064.movedfrom
Library\Bee\artifacts\movedfrom\Unity.2D.PixelPerfect.Editor.ref.dll_5765172664106009878.movedfrom
Library\Bee\artifacts\movedfrom\Unity.2D.PixelPerfect.ref.dll_9856681549612413003.movedfrom
Library\Bee\artifacts\movedfrom\Unity.2D.Psdimporter.Editor.ref.dll_13216594725484200860.movedfrom
Library\Bee\artifacts\movedfrom\Unity.2D.Sprite.Editor.ref.dll_15977261275114544680.movedfrom
Library\Bee\artifacts\movedfrom\Unity.2D.SpriteShape.Editor.ref.dll_1940703435738714035.movedfrom
Library\Bee\artifacts\movedfrom\Unity.2D.SpriteShape.Runtime.ref.dll_13607063483196750280.movedfrom
Library\Bee\artifacts\movedfrom\Unity.2D.Tilemap.Editor.ref.dll_4858273654674696337.movedfrom
Library\Bee\artifacts\movedfrom\Unity.2D.Tilemap.Extras.Editor.ref.dll_10205161182716544682.movedfrom
Library\Bee\artifacts\movedfrom\Unity.2D.Tilemap.Extras.ref.dll_3971670665523324279.movedfrom
Library\Bee\artifacts\movedfrom\Unity.InternalAPIEditorBridge.001.ref.dll_14012374195079120638.movedfrom
Library\Bee\artifacts\movedfrom\Unity.InternalAPIEngineBridge.001.ref.dll_13038110867686256195.movedfrom
Library\Bee\artifacts\movedfrom\Unity.Mathematics.Editor.ref.dll_11106105192880348995.movedfrom
Library\Bee\artifacts\movedfrom\Unity.Mathematics.ref.dll_16784875247615350606.movedfrom
Library\Bee\artifacts\movedfrom\Unity.PlasticSCM.Editor.ref.dll_2700729535869450326.movedfrom
Library\Bee\artifacts\movedfrom\Unity.Rider.Editor.ref.dll_11193012430168537007.movedfrom
Library\Bee\artifacts\movedfrom\Unity.TextMeshPro.Editor.ref.dll_1557689244747631494.movedfrom
Library\Bee\artifacts\movedfrom\Unity.TextMeshPro.ref.dll_9557809654341403355.movedfrom
Library\Bee\artifacts\movedfrom\Unity.Timeline.Editor.ref.dll_953984715949700626.movedfrom
Library\Bee\artifacts\movedfrom\Unity.Timeline.ref.dll_7069769579887910799.movedfrom
Library\Bee\artifacts\movedfrom\Unity.VSCode.Editor.ref.dll_3902429132378491929.movedfrom
Library\Bee\artifacts\movedfrom\Unity.VisualScripting.Core.Editor.ref.dll_17134060296949054973.movedfrom
Library\Bee\artifacts\movedfrom\Unity.VisualScripting.Core.ref.dll_15518829177300997364.movedfrom
Library\Bee\artifacts\movedfrom\Unity.VisualScripting.Flow.Editor.ref.dll_7708282115428993342.movedfrom
Library\Bee\artifacts\movedfrom\Unity.VisualScripting.Flow.ref.dll_2192924542065166755.movedfrom
Library\Bee\artifacts\movedfrom\Unity.VisualScripting.State.Editor.ref.dll_16156761413022531439.movedfrom
Library\Bee\artifacts\movedfrom\Unity.VisualScripting.State.ref.dll_15643080368937755746.movedfrom
Library\Bee\artifacts\movedfrom\Unity.VisualStudio.Editor.ref.dll_4221946230532187309.movedfrom
Library\Bee\artifacts\movedfrom\UnityEditor.UI.ref.dll_5519394401220875509.movedfrom
Library\Bee\artifacts\movedfrom\UnityEngine.UI.ref.dll_648142665722821984.movedfrom
Library\Bee\artifacts\movedfrom\UnityEditor.CoreModule.dll_13541862475769371440.movedfrom
Library\Bee\artifacts\movedfrom\UnityEditor.DeviceSimulatorModule.dll_9202357667282004369.movedfrom
Library\Bee\artifacts\movedfrom\UnityEditor.dll_6259492796949784421.movedfrom
Library\Bee\artifacts\movedfrom\UnityEditor.GraphViewModule.dll_3536137210408629654.movedfrom
Library\Bee\artifacts\movedfrom\UnityEditor.PackageManagerUIModule.dll_2394562140416175244.movedfrom
Library\Bee\artifacts\movedfrom\UnityEditor.QuickSearchModule.dll_4143757942402616312.movedfrom
Library\Bee\artifacts\movedfrom\UnityEditor.SceneTemplateModule.dll_7491944632315246969.movedfrom
Library\Bee\artifacts\movedfrom\UnityEditor.UIBuilderModule.dll_9627446044122607306.movedfrom
Library\Bee\artifacts\movedfrom\UnityEditor.UIElementsModule.dll_161270373583174764.movedfrom
Library\Bee\artifacts\movedfrom\UnityEditor.UIElementsSamplesModule.dll_15171319253831323585.movedfrom
Library\Bee\artifacts\movedfrom\UnityEditor.UIServiceModule.dll_13730807371127733988.movedfrom
Library\Bee\artifacts\movedfrom\UnityEditor.UnityConnectModule.dll_15876702144530686438.movedfrom
Library\Bee\artifacts\movedfrom\UnityEngine.AccessibilityModule.dll_11141386001660879126.movedfrom
Library\Bee\artifacts\movedfrom\UnityEngine.AIModule.dll_12469881100938453892.movedfrom
Library\Bee\artifacts\movedfrom\UnityEngine.AndroidJNIModule.dll_9261049414847802178.movedfrom
Library\Bee\artifacts\movedfrom\UnityEngine.AnimationModule.dll_18417574269028354620.movedfrom
Library\Bee\artifacts\movedfrom\UnityEngine.ARModule.dll_7386096689828364877.movedfrom
Library\Bee\artifacts\movedfrom\UnityEngine.AssetBundleModule.dll_9037256424836776170.movedfrom
Library\Bee\artifacts\movedfrom\UnityEngine.AudioModule.dll_15915031025781161006.movedfrom
Library\Bee\artifacts\movedfrom\UnityEngine.ClothModule.dll_4883565971008035602.movedfrom
Library\Bee\artifacts\movedfrom\UnityEngine.ClusterInputModule.dll_6625311346038076588.movedfrom
Library\Bee\artifacts\movedfrom\UnityEngine.ClusterRendererModule.dll_9611273125927499541.movedfrom
Library\Bee\artifacts\movedfrom\UnityEngine.CoreModule.dll_16073117818311296603.movedfrom
Library\Bee\artifacts\movedfrom\UnityEngine.CrashReportingModule.dll_2144003250241986771.movedfrom
Library\Bee\artifacts\movedfrom\UnityEngine.DirectorModule.dll_1296969367015641912.movedfrom
Library\Bee\artifacts\movedfrom\UnityEngine.dll_9908612290138240074.movedfrom
Library\Bee\artifacts\movedfrom\UnityEngine.DSPGraphModule.dll_1680163915837252697.movedfrom
Library\Bee\artifacts\movedfrom\UnityEngine.GameCenterModule.dll_12309223416503245875.movedfrom
Library\Bee\artifacts\movedfrom\UnityEngine.GIModule.dll_4992860142391921566.movedfrom
Library\Bee\artifacts\movedfrom\UnityEngine.GridModule.dll_13582939408776485970.movedfrom
Library\Bee\artifacts\movedfrom\UnityEngine.HotReloadModule.dll_9286734956896347582.movedfrom
Library\Bee\artifacts\movedfrom\UnityEngine.ImageConversionModule.dll_17389550091912572681.movedfrom
Library\Bee\artifacts\movedfrom\UnityEngine.IMGUIModule.dll_1530427604743704591.movedfrom
Library\Bee\artifacts\movedfrom\UnityEngine.InputLegacyModule.dll_1058315078231979739.movedfrom
Library\Bee\artifacts\movedfrom\UnityEngine.InputModule.dll_4851313676926968018.movedfrom
Library\Bee\artifacts\movedfrom\UnityEngine.JSONSerializeModule.dll_18065539844544463264.movedfrom
Library\Bee\artifacts\movedfrom\UnityEngine.LocalizationModule.dll_11114496730697230245.movedfrom
Library\Bee\artifacts\movedfrom\UnityEngine.ParticleSystemModule.dll_8129930697583783009.movedfrom
Library\Bee\artifacts\movedfrom\UnityEngine.PerformanceReportingModule.dll_608671282667517466.movedfrom
Library\Bee\artifacts\movedfrom\UnityEngine.Physics2DModule.dll_5493914530130706897.movedfrom
Library\Bee\artifacts\movedfrom\UnityEngine.PhysicsModule.dll_9078821118620260543.movedfrom
Library\Bee\artifacts\movedfrom\UnityEngine.ProfilerModule.dll_4919615223945583173.movedfrom
Library\Bee\artifacts\movedfrom\UnityEngine.RuntimeInitializeOnLoadManagerInitializerModule.dll_3259665334511785114.movedfrom
Library\Bee\artifacts\movedfrom\UnityEngine.ScreenCaptureModule.dll_1485447128488160770.movedfrom
Library\Bee\artifacts\movedfrom\UnityEngine.SharedInternalsModule.dll_8459262592362048089.movedfrom
Library\Bee\artifacts\movedfrom\UnityEngine.SpriteMaskModule.dll_10664409615967990189.movedfrom
Library\Bee\artifacts\movedfrom\UnityEngine.SpriteShapeModule.dll_10866049216143522036.movedfrom
Library\Bee\artifacts\movedfrom\UnityEngine.StreamingModule.dll_12983116347886469498.movedfrom
Library\Bee\artifacts\movedfrom\UnityEngine.SubstanceModule.dll_10437197488567484296.movedfrom
Library\Bee\artifacts\movedfrom\UnityEngine.SubsystemsModule.dll_18351322325217974720.movedfrom
Library\Bee\artifacts\movedfrom\UnityEngine.TerrainModule.dll_10972157527938769325.movedfrom
Library\Bee\artifacts\movedfrom\UnityEngine.TerrainPhysicsModule.dll_8164456269357868782.movedfrom
Library\Bee\artifacts\movedfrom\UnityEngine.TextCoreModule.dll_12302311010594079560.movedfrom
Library\Bee\artifacts\movedfrom\UnityEngine.TextRenderingModule.dll_4457666797925084663.movedfrom
Library\Bee\artifacts\movedfrom\UnityEngine.TilemapModule.dll_3981558810499613366.movedfrom
Library\Bee\artifacts\movedfrom\UnityEngine.TLSModule.dll_14174921161562939859.movedfrom
Library\Bee\artifacts\movedfrom\UnityEngine.UIElementsModule.dll_210367175573919159.movedfrom
Library\Bee\artifacts\movedfrom\UnityEngine.UIElementsNativeModule.dll_7761081125351677102.movedfrom
Library\Bee\artifacts\movedfrom\UnityEngine.UIModule.dll_12142136670729414960.movedfrom
Library\Bee\artifacts\movedfrom\UnityEngine.UmbraModule.dll_6319175341208790945.movedfrom
Library\Bee\artifacts\movedfrom\UnityEngine.UNETModule.dll_8193586387618970580.movedfrom
Library\Bee\artifacts\movedfrom\UnityEngine.UnityAnalyticsModule.dll_10408594645535538781.movedfrom
Library\Bee\artifacts\movedfrom\UnityEngine.UnityConnectModule.dll_14534493180465193617.movedfrom
Library\Bee\artifacts\movedfrom\UnityEngine.UnityCurlModule.dll_3653826024306850857.movedfrom
Library\Bee\artifacts\movedfrom\UnityEngine.UnityTestProtocolModule.dll_10254151463192519959.movedfrom
Library\Bee\artifacts\movedfrom\UnityEngine.UnityWebRequestAssetBundleModule.dll_11023995885924507374.movedfrom
Library\Bee\artifacts\movedfrom\UnityEngine.UnityWebRequestAudioModule.dll_9254548882515017906.movedfrom
Library\Bee\artifacts\movedfrom\UnityEngine.UnityWebRequestModule.dll_212548065054427528.movedfrom
Library\Bee\artifacts\movedfrom\UnityEngine.UnityWebRequestTextureModule.dll_3168066492048425159.movedfrom
Library\Bee\artifacts\movedfrom\UnityEngine.UnityWebRequestWWWModule.dll_15748078100431112963.movedfrom
Library\Bee\artifacts\movedfrom\UnityEngine.VehiclesModule.dll_9926703528916656851.movedfrom
Library\Bee\artifacts\movedfrom\UnityEngine.VFXModule.dll_5014204171349248832.movedfrom
Library\Bee\artifacts\movedfrom\UnityEngine.VideoModule.dll_137096800331093971.movedfrom
Library\Bee\artifacts\movedfrom\UnityEngine.VirtualTexturingModule.dll_10394759395631291705.movedfrom
Library\Bee\artifacts\movedfrom\UnityEngine.VRModule.dll_18110011482334604968.movedfrom
Library\Bee\artifacts\movedfrom\UnityEngine.WindModule.dll_6151365856542115012.movedfrom
Library\Bee\artifacts\movedfrom\UnityEngine.XRModule.dll_3319841780346059782.movedfrom
Library\Bee\artifacts\movedfrom\Unity.VisualScripting.Antlr3.Runtime.dll_8613947009546095110.movedfrom